Fri Jun 19 15:37:27 CEST 2020
Preloading tcmalloc_minimal.so
Py:Athena            INFO including file "AthenaCommon/Preparation.py"
Py:Athena            INFO using release [WorkDir-22.0.15] [x86_64-centos7-gcc8-opt] [master/b9ffea6f446] -- built on [2020-06-18T1816]
Py:Athena            INFO including file "AthenaCommon/Atlas.UnixStandardJob.py"
Py:Athena            INFO executing ROOT6Setup
Py:Athena            INFO including file "AthenaCommon/Execution.py"
Py:Athena            INFO including file "AthenaServices/SimplePOSIXTimeKeeperSvc_test.py"
Py:Athena            INFO including file "AthenaServices/SimplePOSIXTimeKeeperOptions.py"
Py:Athena            INFO including file "AthenaCommon/runbatch.py"
Py:ConfigurableDb    INFO Read module info for 5534 configurables from 58 genConfDb files
Py:ConfigurableDb    INFO No duplicates have been found: that's good !
ApplicationMgr       INFO Updating Gaudi::PluginService::SetDebug(level) to level= 'PluginDebugLevel':0
ApplicationMgr       INFO Updating Gaudi::PluginService::SetDebug(level) to level= 'PluginDebugLevel':0
ApplicationMgr    SUCCESS 
====================================================================================================================================
                                                   Welcome to ApplicationMgr (GaudiCoreSvc v33r1)
                                          running on aibuild20-040.cern.ch on Fri Jun 19 15:37:42 2020
====================================================================================================================================
ApplicationMgr       INFO Application Manager Configured successfully
ApplicationMgr       INFO Updating Gaudi::PluginService::SetDebug(level) to level= 'PluginDebugLevel':0
AthenaEventLoopMgr   INFO No TimeKeeper selected. No time limit control on event loop.
SimplePOSIXTime...  DEBUG Property update for OutputLevel : new value = 1
SimplePOSIXTime...   INFO Initializing SimplePOSIXTimeKeeperSvc - package version AthenaServices-00-00-00
AthDictLoaderSvc     INFO in initialize...
AthDictLoaderSvc     INFO acquired Dso-registry
ClassIDSvc           INFO  getRegistryEntries: read 3733 CLIDRegistry entries for module ALL
CoreDumpSvc          INFO install f-a-t-a-l handler... (flag = -1)
CoreDumpSvc          INFO Handling signals: 11(Segmentation fault) 7(Bus error) 4(Illegal instruction) 8(Floating point exception) 
AthenaEventLoopMgr   INFO Initializing AthenaEventLoopMgr - package version AthenaServices-00-00-00
ApplicationMgr       INFO Application Manager Initialized successfully
ApplicationMgr       INFO Application Manager Started successfully
SimplePOSIXTime...VERBOSE TimeKeeper status: (all times in 1/100 CPU secs)
    allocated job time 600 - job time used so far 1097
    average time per iteration 0 - time left -497
    Not enough time for another iteration
ApplicationMgr       INFO Application Manager Stopped successfully
IncidentProcAlg1     INFO Finalize
IncidentProcAlg2     INFO Finalize
AthDictLoaderSvc     INFO in finalize...
ToolSvc              INFO Removing all tools created by ToolSvc
SimplePOSIXTime...   INFO TimeKeeper status: (all times in 1/100 CPU secs)
    allocated job time 600 - job time used so far 1097
    average time per iteration 0 - time left -497
    Not enough time for another iteration
ApplicationMgr       INFO Application Manager Finalized successfully
ApplicationMgr       INFO Application Manager Terminated successfully
Py:Athena            INFO leaving with code 65: "failure in an algorithm execute"
